{
	"local": {
		"ZIPPR_ENVIRONMENT": {
			"server": "//localhost:29998",
			"login" : "//localhost:28008",
			"clientkey" : "1e1352a39ebd3db612cc233e8519bee7f36ca655c43e6cf1783e58c1b31a2d7c",
			"zippr_url": "//dev.zip.pr"
		}
	},
	"dev": {
		"ZIPPR_ENVIRONMENT": {
			"server": "https://dev.zip.pr",
			"login" : "https://dev.zip.pr",
			"clientkey" : "1e1352a39ebd3db612cc233e8519bee7f36ca655c43e6cf1783e58c1b31a2d7c",
			"zippr_url": "https://dev.zip.pr"
		}
	},
	"production": {
		"ZIPPR_ENVIRONMENT": {
			"server": "//api.zip.pr",
			"login" : "//api.zip.pr",
			"clientkey" : "1e1352a39ebd3db612cc233e8519bee7f36ca655c43e6cf1783e58c1b31a2d7c",
			"zippr_url": "//zip.pr"
		}
	}
}